<?xml version="1.0" encoding="UTF-8"?>
<svg xmlns="http://www.w3.org/2000/svg" width="1415.7" height="1415.7" viewBox="0 0 1415.7 1415.7">
  <g id="Layer_1" data-name="Layer 1"/>
  <g id="Layer_2" data-name="Layer 2">
    <g id="Layer_1-2" data-name="Layer 1">
      <circle cx="707.85" cy="707.85" r="707.85"/>
      <g>
        <path d="M999.89,701.56c4.85,4.91,7.8101,7.7401,10.5699,10.7501,4.54,4.9399,9.17,9.8101,13.36,15.03,6.7401,8.42,9.73,18.08,8.35,28.9301-1.17,9.21-2.14,18.45-3.52,27.63-1.14,7.61-2.74,15.14-4.34,23.8-2.39-1.38-4.83-2.14-6.35-3.77-4.87-5.22-8.83-11.3199-16.17-16.66,.3101,9.84,1.5699,18.28,.55,26.4399-.98,7.91-.25,16.54-5.3,24.61-7.67-6.42-5.71-17.26-13.52-23.25-6.88,10.8-13.29,21.87-20.7,32.22-7.49,10.46-15.96,20.22-24.7,31.17,1.42,3.91,2.65,8.3101,4.55,12.39,13.55,29.11,15.02,59.71,11.4301,90.95-.29,2.55-.75,5.12-1.42,7.6-9.54,35.23-12.13,40.4301-45.91,57.23-11.0699,5.51-22.4399,10.52-33.98,14.95-11.5,4.42-23.39,7.8199-36.11,12-1.1899,2.36-2.9,5.49-4.37,8.73-10.26,22.53-26.73,38.91-48.86,49.8199-24.91,12.28-51.03,19.4399-78.98,19.1-14.95-.1801-29.87,.67-44.74-2.55-10.65-2.3101-21.12-4.85-30.94-9.5601-11.63-5.5699-23.25-11.2-34.67-17.1899-41.6-21.83-70.2-55.46-87.22-98.8-5.04-12.84-7.14-26.84-10.55-40.3199-.63-2.48-1.06-5.01-1.7-8.08-3.79-3.1-7.77-6.35-11.75-9.6-19.21-15.71-37.2-32.6801-54.29-50.71-26.55-28.02-47.21-59.95-64.66-94.11-11.71-22.9399-11.36-25.27,3.79-46.15,14.97-20.62,32.78-38.47,52.72-54.27,3.12-2.48,6.15-5.0699,8.9-7.34-.73-4.5-3.91-3.84-6.11-4.64-11.15-4.04-22.49-7.6-33.45-12.1-19.03-7.81-33.09-21.06-40.09-40.66-4.32-12.11-7.49-24.63-11.15-36.97-.56-1.89-.96-3.82-1.84-7.32-3.1,4.44-5.32,7.64-7.41,10.64-1.56-.54-2.93-.58-3.32-1.22-7.98-12.91-12.46-27.02-14.04-43.86-2.34,2.87-4.28,4.41-5.1,6.42-2.52,6.2-4.47,12.63-6.94,18.85-1.07,2.68-2.88,5.06-4.44,7.72-6.63-6.27-6.84-6.22-10.95-25.1-2.08-9.54-4.27-19.26-4.51-28.95-.22-8.98,2.09-18.03,3.56-29.11-3.03,4.19-5.2,6.76-6.88,9.62-1.81,3.08-3.16,6.44-4.7,9.65-4.48,.47-5.1-3.28-5.87-5.71-1.39-4.35-2.31-8.98-2.57-13.53-.82-14.54,1.73-28.82,4.3-43.03,.82-4.5,2.66-8.92,4.6-13.1,16.24-34.93,39.83-63.77,71.72-85.6,4.25-2.91,8.78-5.42,13.24-8.01,17.61-10.19,36.78-13.91,56.71-11.31,22.48,2.94,44.89,6.71,67.14,11.1,20.42,4.02,39.13,12.9,57.13,23.19,11.19,6.39,22.31,12.93,34.07,19.75,2.93-1.74,6.01-3.45,8.96-5.34,15.2-9.76,30.04-20.13,45.62-29.23,35.37-20.66,73.37-29.81,114.45-24.29,19.4301,2.61,38.92,4.76,58.39,7.09,4.1,.49,8.21,.99,12.3199,1.31,8.0601,.62,15.3101-1.47,21.63-6.63,3.6-2.94,7.11-6.02,10.9301-8.64,11.84-8.1,22.72-9.94,39.1-6.59-1.11,4.28-2.2,8.51-3.29,12.75,.92,.34,1.97,1.16,2.75,.96,10.99-2.82,21.92-6.21,33.47-4.92,2.84,.32,5.5699,1.67,9.16,2.8-4.66,11.02-17.38,14.3-20.76,25.85,3.13,2.61,6.75,.99,9.99,1.28,4.11,.37,8.3101,.31,12.29,1.22,3.4,.78,6.54,2.67,9.38,3.89,1.08,3.95-1.26,5.45-3.36,6.76-5.77,3.61-10.51,8.2-15.13,14.35,4.27,5.99,10.63,9.43,15.65,15,3.59-1.54,6.84-2.87,10.04-4.32,8.92-4.05,17.86-8.08,26.73-12.25,22.7-10.69,45.95-10.47,69.47-3.41,16.36,4.91,32.26,11.13,46.9301,19.89,15.05,8.99,29.79,18.55,44.3101,28.38,10.72,7.26,15.27,12.95,20.74,23.24-12.48,3.41-25.48-.12-37.39,3.11-1.21,5.11,2.47,7.2,4.4301,9.88,6.17,8.45,10.52,17.75,13.78,27.59,1.28,3.86,2.34,7.94-.41,12.41-5.79-1.95-11.5-3.87-17.9-6.03-1.28,9.14,3.28,16.55,3.74,24.54,.46,8.13,4.1,16.06,1.34,25.47-4.22-1.72-8.28-3.39-13.2-5.4-2.59,14.59-2.55,29.55-7.88,43.49-5.5699,14.57-12.65,28.24-22.12,40.65-9.21,12.07-20.74,21.44-33.62,29.37-12.73,7.84-26.74,12.68-43.15,18.03l.0397,.0302h.0001Zm-29.95-126.4301l.26,.31c2.38-1.73,4.7-3.53,7.15-5.16,2.98-1.98,5.9-4.19,9.16-5.59,2.77-1.19,5.97-1.38,8.98-2.01,3.15-.66,6.75,.49,10.55-1.93-8.42-9.78-19.29-11.35-29.75-12.81-12.4301-1.73-24.3199,1.2-35.66,6.87-3.6801,20.28-5.98,40.11-1.52,60.09,1.17,5.26,1.79,10.96,6.66,16.15,8.37-7.93,18.29-9.18,29.67-8.37-5.84-9.56-15.83-8.23-23.0699-11.98,9.17-18.86,23.1-24.7,50.77-21.75-5.53-8.29-9.84-11.09-19.45-12.36-4.5601-.6-9.16-.98-13.74-1.46h-.0101Zm-407.27-126.5102c-1.21-1.6-1.73-2.53-2.47-3.21-1.52-1.39-3.08-2.76-4.75-3.96-56.33-40.66-117.44-47.46-182.18-24.65-25.33,8.93-46.47,24.47-62.52,46.35-1.72,2.34-2.96,5.02-5.27,8.98,11.55-1.64,20.92-7.67,31.33-3.97,.61,5.59-3.71,8.38-6.43,11.89-10.58,13.68-17.61,29.08-22.35,45.56-1.21,4.21-3.3,8.71,.06,13.69,11.5-7.71,20.22-20.81,37.45-19.67-5.54,18.11-13.13,34.64-12.35,54.63,5.71-4.28,10.34-8.09,15.33-11.35,2.31-1.51,5.31-1.97,9.33-3.37,.38,6.47,.85,11.49,.93,16.52,.25,16.07,2.62,31.8,6.62,47.37,6.22,24.24,21.45,41.14,43.59,51.26,27.08,12.38,55.56,14.86,84.64,7.72,1.33-.33,2.39-1.8,3.66-2.8-2.35-3.53-4.59-6.9-6.68-10.05,4.58-7.99,7.56-9.78,12.96-6.77,5.82,3.24,11.16,7.34,16.65,11.03,3.07,4.84,6.21,9.56,9.1,14.42,5.14,8.66,7.43,18.09,6.96,28.14-.35,7.54-3.03,14.11-8.78,19.15-9.79,8.5699-24.2,7.65-33.33-2.46-4.06-4.49-7.29-9.72-10.98-14.73-11.51,12.55-16.87,23.75-18.52,38.54,6.61-1.42,13.01-3.14,19.51-4.1,7.18-1.0601,14.39-.73,21.44,1.55,6.23,2.01,12.76,3.38,17.43,10.11-8.63,5.34-19.1,7.11-24.18,17.63,3.37,0,5.77,.21,8.12-.05,3.06-.34,6.16-1.75,9.11-1.4301,5.85,.63,12.4,.72,15.46,8.66-12.33,8.78-18.28,20.54-18.3,35.25,1.81,.38,2.96,1.04,3.67,.72,11.38-5.12,22.13-2.35,32.89,2.1801,9.27,3.91,16.57,10.3199,23.51,17.33,3.18,3.21,6.53,6.25,9.61,9.1899,6.3-2.59,11.52-4.78,16.76-6.9,10.57-4.26,21.5-6.87,32.79-8.7,23.81-3.85,47.45-1.75,70.97,1.52,24.92,3.46,48.23,11.74,67.25,28.96,9.53,8.64,18.14,18.3,27,27.65,3.5,3.7,6.5601,7.8101,9.86,11.78,2.55-.25,4.58-.3101,6.5601-.65,25.61-4.45,49.9-12.8,72.83-25.03,15.22-8.12,28.78-18.4301,38.78-32.6,10.4-14.73,20.0601-29.98,29.98-45.04,4.2-6.38,7-13.74,12.85-18.92,4.17,.9399,7.9,1.79,12.88,2.91-3.23-13.08-10.8-22.5-14.86-32.65,.75-1.38,.92-2.14,1.23-2.2,15.54-3.3,27.3101,9.24,41.79,10.66,.28-1.62,.84-2.72,.5699-3.54-5.5699-16.4301-13.89-30.59-28.53-41.17-16.49-11.91-29.6-27.66-38.7-45.72-7.85-15.56-15.78-31.36-19.9301-48.58-.4301-1.79-1.89-3.34-3.76-6.5-2.15,5.17-3.65,8.77-5.1801,12.43,5.17,10.32,10.15,20.26,15.12,30.2-.59,.44-1.1801,.87-1.78,1.31-4.87-4.46-9.74-8.91-15.1801-13.89-3.21,6.94-2.48,13.94-6.85,20.64-6.48-9.97-1.91-20.52-5.7-30.11-4.38-3.58-9.12-7.54-13.9399-11.39-5.76-4.6-10.61-10.05-13.11-16.94-1.53-4.22-2.04-8.99-2.0699-13.52-.02-3.88,2.58-6.66,6.61-7.52,3.84-.81,7.39,.09,9.5601,3.42,2.24,3.43,3.74,7.33,5.8,10.89,2.95,5.11,5.4301,10.74,11.95,13.84,4.49-9.4,4.78-20.16,13.53-25.42,1.0699-15.34,1.2-29.87,3.3199-44.1,2.12-14.22,6.24-28.15,9.49-42.2,.35-1.51,1-3,1.05-4.51,.34-9.77,1.61-19.65,.5699-29.28-2.1801-20.1-12.86-35.14-29.51-45.76-2.9301,1.77-4.91,2.96-7.48,4.5-1.58-13.32,5.45-22.37,12.7-32.41-9.73-.9-16.23,5.65-24.63,6.88-7.36-9.23-1.1-18.41,1.37-29.41-10.89,4.61-16.8101,12.42-24.6801,19.79-1.87-4.22-3.37-7.22-4.55-10.35-1.3-3.47,.42-7.99-3.89-11.77-3.8199,4.49-7.1801,8.28-10.36,12.22-5.23,6.48-11.85,9.87-20.24,9.11-6.66-.61-13.34-1.28-19.9301-2.41-22.5-3.85-44.98-5.48-67.8-2.44-17.4399,2.32-34.55,5.9-51.48,10.53-45.87,12.56-85.63,35.23-117.72,70.74-3,3.33-6.59,6.13-11.51,10.64-.14-13.81,7.89-22.85,9.9-34.3l.03,.0099h.0004Zm-170.2,349.7101c.13,9.1,3.55,16.12,6.59,23.1801,15.73,36.5,37.71,68.63,67.11,95.5699,37.7,34.54,80.93,60.39,127.42,81.1,5.09,2.27,10.45,3.9399,15.5,5.8199,5.72-8.62,18.46-39.33,22.84-54.86-2.34-1.55-4.78-3.34-7.37-4.88-39.21-23.42-76-49.79-104.96-85.77-1.54-1.91-3.62-3.9301-5.84-4.64-5.63-1.79-7.81-6.25-10.19-10.9-5.71-11.1899-5.8-22.77-2.89-34.65,.68-2.79,1.2-5.62,2.16-10.1801-6.52,3.09-10.17,6.6899-13.16,10.75-3.22,4.37-5.82,9.2-9.02,14.35-7.16-13.78-7.37-17.37-2.43-29.21,.55-1.3199,1.43-3.11,.97-4.16-2-4.53,.78-7.98,2.09-11.78,.78-2.23,3.04-4.4-.05-6.98-17.79,6.27-20.33,22.5-23.75,38.39-6.3-2.37-8.12-7.47-10.11-12-2.27-5.16-4.03-10.62-5.29-16.11-1.15-4.99-1.32-10.21-1.94-15.33-.64-5.28,1.3-10.87-1.67-18.14-17.71,16.53-33.66,32.26-46.01,50.42v.0104Zm142.98,201.59l-2.18,1.87c1.49,3.09,2.75,6.3101,4.51,9.23,14.24,23.58,31.33,44.9301,52.35,62.74,9.78,8.29,20.49,15.77,31.64,22.09,30.32,17.2,63.58,19.9,97.53,17.5,13.96-.98,27.39-4.53,40.47-9.6899,20.3-8.01,34.87-21.9,43.3101-41.85,16.8101-39.74,12.72-77.65-11.6899-113.09-10.9399-15.88-25.26-28.55-41.33-39.21-25.3-16.77-53.21-27.24-82.73-33.37-13.1-2.72-26.45-4.63-39.98-3.62-14.93,1.12-29.46,3.74-43.18,10.61,9.23,10.24,26.57,22.66,38.71,27.89,19.92-6.76,30.94-8.7,45.4-6.52,24.39,3.67,46.73,12.61,66.4301,27.67,8.29,6.33,15.22,14.01,20.65,22.87,17.77,28.96,17.53,59.5699-2.28,87.2-18.49,25.79-45.65,39.0699-76.83,40.5601-41.52,1.98-73.22-17.63-97.11-50.73-3-4.16-5.52-8.67-7.95-12.52-12.31-6.76-24.02-13.1899-35.74-19.63h-.0004Zm516.3901-477.7101c0,1.45-.1899,2.06,.03,2.42,.79,1.27,1.53,2.65,2.62,3.63,18.59,16.95,21.39,38.09,15.41,61.01-9.3199,35.69-46.16,69.27-82.54,75.73-6.04,1.07-12.28,.98-18.42,1.48-1.75,.14-3.49,.45-7.75,1.03,7.62,7.77,12.01,15.32,20.59,19.58,25.03-8.59,48.41-20.19,67.7-38.85,15.4301-14.94,27.4301-32.21,33.25-53.16,4.38-15.76,5.05-31.49-1.92-46.88-1.01-2.23-1.3199-4.78-1.85-6.77,7.05-7.02,14.22,1.5,21.3199-1.29-.98-7.29-5.28-12.53-9.3-17.66-3.9-4.98-8.66-9.31-14.22-15.16,9.45-1.94,17.14-3.52,26.52-5.45-3.99-4.27-6.5601-7.36-9.48-10.08-11.62-10.81-26.36-15.38-43.4399-19.74,5.54-3.1,8.95-5.28,12.58-6.97,3.25-1.52,6.6801-2.85,10.17-3.64,4.01-.9,8.1899-.99,12.26-1.67,3.63-.61,7.89,.92,12.09-2.93-2.85-1.59-4.53-2.64-6.3101-3.49-14.08-6.79-29-10.65-44.4399-12.57-23.05-2.87-46.16-5.59-69.36-2.02-10.55,1.62-21.0699,3.83-30.1,9.88,1.51,9.38,3.4301,17.93,4.14,26.58,.74,8.99,.3,18.08,.39,28.39,4.09-1.98,6.74-3.49,9.54-4.59,7.66-3,15.1899-6.7,23.14-8.57,23.63-5.57,46.1201-2.05,66.8701,10.75,7.54,4.65,14.16,10.34,15.78,21h-15.27v.0099h-.0002Zm-204.52,506.85c1.26,.47,1.77,.87,2.2,.79,28.48-5.46,50.48-20.25,64.02-46.14,11.74-22.45,12.14-45.48,.96-68.4301-2-4.11-3.95-8.46-8.8-10.0601-25.91,7.37-38.3101,12.26-47.52,18.91,2.37,20.41-2.1899,39.48-14.87,54.51,1.22,9.89,2.51,18.04,3.15,26.25,.63,8.14,.61,16.33,.86,24.17h.0001l-.0002,.0002Zm-215.05-17.21c7.83-19.08,15.3-36.66,21.64-54.8199-2.36-1.03-3.69-1.79-5.13-2.1801-.91-.24-1.96,.0699-4.95,.27-6.71,16.9301-13.97,34.55-19.93,53.05,2.78,1.23,4.59,2.02,8.36,3.6801h.01Zm-123.3-320.1002c-5.97,1.92-9.89,5.95-12.47,11.14,.63,6.4399,2.46,11.65,6.79,15.72,2.82,2.65,5.96,3.96,9.64,1.5601,3.86-11.91,3.53-14.6-3.96-28.43v.0099h0Zm55.07,174.3101c1.18-1.3101,2.45-2.72,3.69-4.1-13.5-13.88-19.5-18.11-30.92-21.88,5.26,9.42,14.87,18.66,27.23,25.99v-.01Z"/>
        <path d="M562.67,448.61c-2.01,11.45-10.04,20.49-9.9,34.3,4.92-4.52,8.5-7.32,11.51-10.64,32.08-35.51,71.85-58.19,117.72-70.74,16.93-4.64,34.04-8.21,51.48-10.53,22.8199-3.04,45.3-1.41,67.8,2.44,6.59,1.13,13.27,1.8,19.9301,2.41,8.39,.77,15.01-2.63,20.24-9.11,3.1801-3.94,6.54-7.73,10.36-12.22,4.3101,3.78,2.58,8.31,3.89,11.77,1.1801,3.12,2.6801,6.13,4.55,10.35,7.87-7.37,13.78-15.19,24.6801-19.79-2.46,10.99-8.73,20.18-1.37,29.41,8.4-1.22,14.91-7.77,24.63-6.88-7.26,10.04-14.28,19.08-12.7,32.41,2.5601-1.54,4.54-2.73,7.48-4.5,16.65,10.62,27.33,25.66,29.51,45.76,1.04,9.63-.24,19.52-.5699,29.28-.05,1.51-.7,3.01-1.05,4.51-3.25,14.06-7.36,27.98-9.49,42.2-2.12,14.23-2.25,28.76-3.3199,44.1-8.75,5.26-9.04,16.02-13.53,25.42-6.52-3.1-9-8.73-11.95-13.84-2.0601-3.56-3.5601-7.46-5.8-10.89-2.17-3.33-5.71-4.23-9.5601-3.42-4.03,.85-6.63,3.64-6.61,7.52,.03,4.53,.53,9.3,2.0699,13.52,2.5,6.89,7.35,12.35,13.11,16.94,4.83,3.85,9.5699,7.81,13.9399,11.39,3.78,9.59-.78,20.15,5.7,30.11,4.37-6.7,3.64-13.7,6.85-20.64,5.4301,4.97,10.3101,9.43,15.1801,13.89,.59-.44,1.1801-.87,1.78-1.31-4.98-9.94-9.96-19.88-15.12-30.2,1.52-3.66,3.02-7.26,5.1801-12.43,1.87,3.16,3.33,4.71,3.76,6.5,4.15,17.22,12.08,33.02,19.9301,48.58,9.1,18.06,22.21,33.81,38.7,45.72,14.64,10.58,22.95,24.74,28.53,41.17,.28,.8199-.28,1.92-.5699,3.54-14.48-1.41-26.25-13.95-41.79-10.66-.3199,.0699-.48,.8199-1.23,2.2,4.0601,10.15,11.63,19.5699,14.86,32.65-4.98-1.13-8.71-1.97-12.88-2.91-5.85,5.1801-8.65,12.54-12.85,18.92-9.92,15.0601-19.59,30.3101-29.98,45.04-10,14.17-23.55,24.48-38.78,32.6-22.9301,12.23-47.22,20.58-72.83,25.03-1.98,.34-4.01,.41-6.5601,.65-3.3-3.97-6.36-8.09-9.86-11.78-8.86-9.35-17.47-19.02-27-27.65-19.01-17.23-42.3199-25.51-67.25-28.96-23.52-3.26-47.15-5.37-70.97-1.52-11.29,1.83-22.22,4.4399-32.79,8.7-5.25,2.12-10.47,4.3-16.76,6.9-3.08-2.9399-6.43-5.98-9.61-9.1899-6.94-7.01-14.24-13.42-23.51-17.33-10.76-4.53-21.51-7.3101-32.89-2.1801-.71,.3199-1.87-.34-3.67-.72,.02-14.71,5.97-26.47,18.3-35.25-3.06-7.9399-9.61-8.04-15.46-8.66-2.95-.3199-6.04,1.1-9.11,1.4301-2.35,.26-4.74,.05-8.12,.05,5.07-10.52,15.55-12.29,24.18-17.63-4.68-6.74-11.21-8.1-17.43-10.11-7.05-2.28-14.25-2.61-21.44-1.55-6.51,.96-12.9,2.6801-19.51,4.1,1.66-14.79,7.02-25.99,18.52-38.54,3.69,5.01,6.93,10.24,10.98,14.73,9.13,10.1,23.55,11.02,33.33,2.46,5.76-5.04,8.43-11.61,8.78-19.15,.47-10.06-1.82-19.48-6.96-28.14-2.89-4.86-6.03-9.58-9.1-14.42-5.49-3.69-10.83-7.79-16.65-11.03-5.4-3.01-8.38-1.22-12.96,6.77,2.09,3.15,4.33,6.52,6.68,10.05-1.27,1-2.32,2.47-3.66,2.8-29.08,7.14-57.57,4.66-84.64-7.72-22.14-10.12-37.36-27.02-43.59-51.26-4-15.57-6.37-31.3-6.62-47.37-.08-5.03-.55-10.06-.93-16.52-4.02,1.4-7.02,1.85-9.33,3.37-4.99,3.26-9.62,7.06-15.33,11.35-.78-20,6.81-36.52,12.35-54.63-17.23-1.15-25.95,11.96-37.45,19.67-3.36-4.97-1.27-9.48-.06-13.69,4.73-16.49,11.76-31.89,22.35-45.56,2.72-3.51,7.04-6.31,6.43-11.89-10.41-3.7-19.78,2.33-31.33,3.97,2.31-3.97,3.55-6.65,5.27-8.98,16.05-21.88,37.2-37.42,62.52-46.35,64.74-22.82,125.85-16.01,182.18,24.65,1.67,1.2,3.23,2.57,4.75,3.96,.74,.68,1.26,1.61,2.47,3.21l-.0301-.01h-.0005Zm328.91,271.28c-.34-.0699-.6801-.13-1.02-.2,0-1.55,.04-3.1,0-4.64-.91-28.57-5.62-56.53-15.54-83.32-8.21-22.17-21.39-40.51-41.45-54.44-26.0601-18.11-61.8101-6.71-73.96,18.92-9.09,19.18-16.6899,39.02-21.09,59.7-5.92,27.83-7.39,56.2-6.46,84.6901,.89,27.14,11.36,50.02,30.12,69.24,18.41,18.86,41.47,22.0699,65.9,17.46,21.64-4.08,37.39-16.8,46.47-37.08,2.9399-6.5699,6.02-13.28,7.55-20.25,3.64-16.59,6.38-33.37,9.49-50.08h-.0099Zm-361.73-176.6002c7.9-7.9,9.58-17.06,7.63-27.32-2.25-11.85-6.94-22.52-14.05-32.31-10.29-14.16-23.63-24.3-39.5-31.35-22.05-9.8-45.07-14.17-69.22-13.08-23.03,1.04-41.56,10.83-56.33,28.12-1.82,2.13-2.63,5.12-4.34,8.58,13.94,2.36,27.88,2.23,37.04,13.56-.37,1.11-.44,1.65-.71,2.07-1.12,1.72-2.23,3.45-3.47,5.09-15.98,21.18-21.36,45.45-20.23,71.39,.71,16.34,6,31.3,15.76,44.53,18.91,25.62,44.15,41.31,75.3,47.59,12.41,2.5,24.73,1.56,36.69-2.17,8.38-2.62,16.25-6.68,22.57-13.03,12.53-12.59,7.84-31.58-9.08-37-6.08-1.95-12.15-1.41-18.31-.06-4.8,1.05-9.25,4.12-15.26,3.52,2.1-10.53,9.66-14.89,17.5-19.22-3.7-9.21-10.96-12.42-19.55-13.38-11.02-1.24-21.58,.38-31.37,5.92-2.97,1.68-5.97,3.29-9.63,5.3-.28-2.51-.96-4.13-.53-5.38,4.64-13.75,14.71-20.63,28.8-21.96,4.09-.39,8.28-.38,12.36,.04,4.41,.45,8.75,1.59,13.62,2.53,1.23-6.95-2.58-10.65-6.49-13.68-12.73-9.88-27.13-14.47-43.34-12.02-3.56,.54-7.04,1.59-10.57,2.31-3.82,.79-6.94,4.41-12.38,2.83,6.55-10.81,16.17-16.11,27.26-19.08,15.47-4.14,30.74-2.69,45.48,3.24,7.63,3.07,14.85,7.15,22.39,10.47,6.54,2.88,13.05,6.44,21.95,3.95h.0099Zm132.55,74.88c-3.5-2.33-5.29-3.32-6.84-4.6-7.26-5.97-12.62-13.46-17.61-21.39-3.25-5.16-7.08-10.23-11.62-14.24-5.67-5-14.7-4.57-20.09-.28-5.03,4-7.08,11.32-4.31,18.3,1.49,3.74,3.78,7.42,6.53,10.36,8.78,9.41,17.95,18.46,26.96,27.66,2.46,2.51,4.86,5.09,7.28,7.63-1.03,2.52-1.65,4.49-2.61,6.28-7.83,14.71-12.56,30.48-15.59,46.76-.93,5-.93,10.22-.79,15.33,.04,1.52,2.01,3,3.95,5.66,1.89-3.28,3.22-5.3101,4.27-7.47,4.5-9.25,8.63-18.69,13.5-27.74,2.41-4.48,5.91-8.45,9.3-12.32,3.63-4.14,6.33-9.41,11.9-11.6,15.33,7.22,30.83,13.06,42.25,25.8,3.11,3.47,6.96,5.93,12.02,4.35,.1801-1.34,.72-2.5,.38-3.26-8.41-18.61-23.7-32.13-36.67-48.15,3.67-4.36,7.23-8.06,10.17-12.21,6.23-8.81,12.32-17.74,18.1-26.86,2.81-4.43,3.78-9.59,2.78-14.9-1.51-8.03-10.14-11.29-16.62-6.25-1.62,1.26-3.1,2.74-4.41,4.32-6.25,7.53-12.39,15.15-18.62,22.69-4.22,5.1-8.53,10.12-13.58,16.11l-.0301,.0201h0Zm130.22-137.71c-5.76,2.76-9.92,4.58-13.92,6.7-24.03,12.76-48.78,15.2-74.65,5.97-12.79-4.56-26.19-5.48-39.69-4.64-27.48,1.72-48.6,15.42-66.3,35.41-1.74,1.96-2.52,4.52,1.16,7.05,6.26-2.17,12.99-4.6,19.8-6.82,5.37-1.75,10.73-4.03,16.26-4.71,27.19-3.34,54.41-4.88,81.78-1.15,9.65,1.32,19.5699,1.08,29.34,.77,5.04-.16,10.26-1.42,14.99-3.24,10.5699-4.08,14.89-15.45,23.9399-21.54,3.72-2.51,6.9301-6.18,7.3101-13.81l-.0199,.0101h0Zm121.03,67.0099c.86-1.86,1.8199-2.93,1.58-3.56-5.59-14.85-15.85-23.53-32.1899-23.95-4.61-.12-9.25-.36-13.84-.03-9.46,.69-16.79-3.38-23.54-9.42-3.28-2.94-5.23-7.72-10.8199-8.18-2.55,2.74-4.13,5.88-2.72,9.68,4.5601,12.26,12.22,21.55,25.85,23.58,7.03,1.05,14.28,.85,21.4301,.75,8.1899-.11,16.38-.84,23.86,1.6,3.6899,3.38,6.9301,6.35,10.41,9.53h-.0203Z" fill="#fff"/>
        <path d="M392.47,798.33c12.35-18.16,28.31-33.89,46.01-50.42,2.97,7.27,1.02,12.86,1.67,18.14,.62,5.12,.8,10.33,1.94,15.33,1.26,5.49,3.02,10.96,5.29,16.11,2,4.53,3.81,9.63,10.11,12,3.41-15.9,5.96-32.12,23.75-38.39,3.08,2.5699,.82,4.74,.05,6.98-1.32,3.79-4.09,7.25-2.09,11.78,.46,1.05-.41,2.83-.97,4.16-4.94,11.83-4.72,15.4301,2.43,29.21,3.19-5.14,5.79-9.97,9.02-14.35,3-4.0699,6.65-7.67,13.16-10.75-.96,4.5601-1.48,7.39-2.16,10.1801-2.91,11.88-2.82,23.46,2.89,34.65,2.37,4.65,4.56,9.12,10.19,10.9,2.23,.71,4.3,2.73,5.84,4.64,28.96,35.98,65.75,62.34,104.96,85.77,2.59,1.55,5.04,3.33,7.37,4.88-4.38,15.53-17.12,46.24-22.84,54.86-5.06-1.88-10.41-3.55-15.5-5.8199-46.49-20.72-89.72-46.5601-127.42-81.1-29.4-26.9399-51.38-59.0699-67.11-95.5699-3.04-7.0601-6.46-14.08-6.59-23.1801v-.0104Z" fill="#fff"/>
        <path d="M535.45,999.9199c11.72,6.4301,23.43,12.87,35.74,19.63,2.43,3.85,4.94,8.36,7.95,12.52,23.89,33.11,55.59,52.71,97.11,50.73,31.19-1.49,58.34-14.77,76.83-40.5601,19.8101-27.63,20.04-58.23,2.28-87.2-5.4301-8.86-12.36-16.54-20.65-22.87-19.7-15.05-42.03-23.99-66.43-27.67-14.46-2.1801-25.48-.24-45.4,6.52-12.14-5.23-29.49-17.65-38.71-27.89,13.73-6.88,28.25-9.49,43.18-10.61,13.53-1.01,26.87,.89,39.98,3.62,29.52,6.14,57.43,16.6,82.73,33.37,16.08,10.66,30.4,23.33,41.33,39.21,24.41,35.4301,28.5,73.35,11.6899,113.09-8.4399,19.95-23.01,33.84-43.3101,41.85-13.0699,5.16-26.51,8.7-40.47,9.6899-33.95,2.39-67.21-.3-97.53-17.5-11.15-6.33-21.86-13.8101-31.64-22.09-21.02-17.8101-38.11-39.15-52.35-62.74-1.76-2.92-3.02-6.15-4.51-9.23l2.18-1.87h.0004Z" fill="#fff"/>
        <path d="M1051.84,522.21h15.27c-1.62-10.66-8.24-16.35-15.78-21-20.75-12.8-43.25-16.32-66.87-10.75-7.95,1.87-15.47,5.57-23.14,8.57-2.8101,1.1-5.45,2.6-9.54,4.59-.09-10.31,.34-19.4-.39-28.39-.71-8.65-2.63-17.2-4.14-26.58,9.04-6.05,19.55-8.26,30.1-9.88,23.21-3.57,46.3101-.85,69.36,2.02,15.4399,1.92,30.37,5.78,44.4399,12.57,1.78,.86,3.46,1.91,6.3101,3.49-4.2,3.85-8.46,2.33-12.09,2.93-4.0699,.68-8.25,.77-12.26,1.67-3.49,.79-6.91,2.12-10.17,3.64-3.63,1.7-7.05,3.87-12.58,6.97,17.08,4.36,31.8199,8.92,43.4399,19.74,2.92,2.71,5.48,5.8,9.48,10.08-9.39,1.93-17.0699,3.51-26.52,5.45,5.5601,5.86,10.3101,10.18,14.22,15.16,4.02,5.14,8.3199,10.37,9.3,17.66-7.11,2.78-14.27-5.73-21.3199,1.29,.53,1.99,.84,4.54,1.85,6.77,6.98,15.39,6.3,31.12,1.92,46.88-5.8199,20.95-17.8199,38.22-33.25,53.16-19.28,18.66-42.66,30.25-67.7,38.85-8.58-4.26-12.98-11.81-20.59-19.58,4.27-.57,6-.88,7.75-1.03,6.14-.5,12.38-.41,18.42-1.48,36.38-6.46,73.23-40.04,82.54-75.73,5.98-22.92,3.1801-44.06-15.41-61.01-1.08-.99-1.83-2.37-2.62-3.63-.22-.36-.03-.96-.03-2.42v-.0099h.0001Z" fill="#fff"/>
        <path d="M847.32,1029.0599c-.25-7.84-.22-16.03-.86-24.17-.64-8.2-1.9301-16.36-3.15-26.25,12.6801-15.03,17.24-34.1,14.87-54.51,9.21-6.65,21.61-11.54,47.52-18.91,4.85,1.6,6.8,5.96,8.8,10.0601,11.1801,22.9399,10.78,45.98-.96,68.4301-13.54,25.89-35.53,40.6801-64.02,46.14-.4301,.08-.95-.3199-2.2-.79h-.0001l.0002-.0002Z" fill="#fff"/>
        <path d="M969.94,575.13c4.58,.48,9.17,.86,13.74,1.46,9.6,1.27,13.92,4.07,19.45,12.36-27.67-2.95-41.6,2.89-50.77,21.75,7.24,3.75,17.23,2.42,23.0699,11.98-11.38-.81-21.3101,.44-29.67,8.37-4.86-5.19-5.48-10.89-6.66-16.15-4.46-19.98-2.16-39.8,1.52-60.09,11.35-5.67,23.24-8.6,35.66-6.87,10.46,1.46,21.34,3.02,29.75,12.81-3.8,2.42-7.4,1.27-10.55,1.93-3.01,.63-6.21,.82-8.98,2.01-3.25,1.4-6.17,3.61-9.16,5.59-2.45,1.63-4.77,3.43-7.15,5.16-1.27,.17-2.54,.34-.73,.1-1.5699,1.24,.25,2.75,.47-.41h.0101Z" fill="#fff"/>
        <path d="M632.27,1011.86c-3.77-1.66-5.58-2.46-8.36-3.6801,5.96-18.5,13.22-36.12,19.93-53.05,2.99-.2,4.04-.51,4.95-.27,1.44,.39,2.77,1.15,5.13,2.1801-6.34,18.16-13.82,35.74-21.64,54.8199h-.01Z" fill="#fff"/>
        <path d="M508.97,691.76c7.49,13.83,7.82,16.52,3.96,28.4301-3.69,2.39-6.82,1.09-9.64-1.5699-4.33-4.0699-6.16-9.28-6.79-15.72,2.58-5.19,6.5-9.23,12.47-11.14h0v-.0002Z" fill="#fff"/>
        <path d="M564.04,866.0699c-12.36-7.3199-21.97-16.5699-27.23-25.99,11.41,3.77,17.42,8,30.92,21.88-1.24,1.38-2.5,2.79-3.69,4.1v.01Z" fill="#fff"/>
        <path d="M891.58,719.89c-3.11,16.7-5.85,33.49-9.49,50.08-1.53,6.97-4.6,13.6801-7.55,20.25-9.08,20.29-24.83,33-46.47,37.08-24.4301,4.61-47.49,1.4-65.9-17.46-18.76-19.22-29.23-42.1-30.12-69.24-.9301-28.49,.53-56.86,6.46-84.69,4.4-20.68,12-40.52,21.09-59.7,12.15-25.64,47.9-37.03,73.96-18.92,20.0601,13.94,33.24,32.27,41.45,54.44,9.92,26.79,14.63,54.75,15.54,83.3199,.05,1.55,0,3.09,0,4.64,.34,.0699,.6801,.13,1.02,.2h.0099Z"/>
        <path d="M529.86,543.29c-8.89,2.48-15.4-1.08-21.95-3.95-7.54-3.31-14.76-7.4-22.39-10.47-14.74-5.93-30.01-7.38-45.48-3.24-11.09,2.97-20.71,8.27-27.26,19.08,5.44,1.59,8.56-2.04,12.38-2.83,3.53-.73,7.01-1.78,10.57-2.31,16.21-2.45,30.61,2.14,43.34,12.02,3.9,3.03,7.72,6.74,6.49,13.68-4.87-.94-9.21-2.08-13.62-2.53-4.08-.42-8.27-.42-12.36-.04-14.09,1.34-24.16,8.22-28.8,21.96-.42,1.25,.25,2.87,.53,5.38,3.66-2.01,6.67-3.62,9.63-5.3,9.79-5.54,20.35-7.16,31.37-5.92,8.58,.96,15.84,4.17,19.55,13.38-7.85,4.33-15.4,8.69-17.5,19.22,6.01,.6,10.46-2.47,15.26-3.52,6.15-1.34,12.23-1.88,18.31,.06,16.93,5.42,21.62,24.41,9.08,37-6.32,6.35-14.19,10.42-22.57,13.03-11.96,3.73-24.28,4.67-36.69,2.17-31.15-6.28-56.39-21.97-75.3-47.59-9.76-13.23-15.05-28.19-15.76-44.53-1.13-25.95,4.25-50.21,20.23-71.39,1.23-1.64,2.35-3.37,3.47-5.09,.27-.42,.34-.97,.71-2.07-9.17-11.33-23.1-11.2-37.04-13.56,1.71-3.46,2.53-6.45,4.34-8.58,14.77-17.3,33.29-27.08,56.33-28.12,24.15-1.09,47.17,3.28,69.22,13.08,15.87,7.05,29.21,17.19,39.5,31.35,7.11,9.78,11.81,20.46,14.05,32.31,1.95,10.26,.26,19.42-7.63,27.32h-.0099Z"/>
        <path d="M662.4,618.17c5.06-5.99,9.37-11.01,13.58-16.11,6.24-7.54,12.37-15.16,18.62-22.69,1.31-1.58,2.8-3.06,4.41-4.32,6.48-5.05,15.11-1.79,16.62,6.25,.9999,5.3,.03,10.46-2.78,14.9-5.78,9.11-11.87,18.04-18.1,26.86-2.93,4.15-6.5,7.84-10.17,12.21,12.98,16.01,28.26,29.54,36.67,48.15,.34,.76-.2,1.92-.38,3.26-5.05,1.58-8.9-.88-12.02-4.35-11.42-12.74-26.92-18.58-42.25-25.8-5.57,2.19-8.27,7.46-11.9,11.6-3.39,3.86-6.89,7.84-9.3,12.32-4.86,9.05-8.99,18.49-13.5,27.74-1.05,2.16-2.38,4.1899-4.27,7.47-1.94-2.66-3.9-4.13-3.95-5.66-.14-5.1-.14-10.33,.79-15.33,3.03-16.28,7.75-32.05,15.59-46.76,.96-1.79,1.57-3.77,2.61-6.28-2.42-2.54-4.82-5.12-7.28-7.63-9-9.2-18.18-18.25-26.96-27.66-2.75-2.94-5.04-6.62-6.53-10.36-2.77-6.98-.72-14.3,4.31-18.3,5.39-4.28,14.41-4.72,20.09,.28,4.54,4.01,8.37,9.07,11.62,14.24,4.98,7.93,10.34,15.41,17.61,21.39,1.55,1.28,3.34,2.27,6.84,4.6l.0301-.02h0Z"/>
        <path d="M792.6201,480.46c-.38,7.63-3.58,11.3-7.3101,13.81-9.0601,6.1-13.37,17.46-23.9399,21.54-4.73,1.82-9.95,3.08-14.99,3.24-9.77,.31-19.7,.54-29.34-.77-27.37-3.73-54.58-2.19-81.78,1.15-5.53,.68-10.89,2.95-16.26,4.71-6.8,2.22-13.54,4.65-19.8,6.82-3.68-2.53-2.89-5.09-1.16-7.05,17.7-19.99,38.82-33.69,66.3-35.41,13.51-.85,26.91,.07,39.69,4.64,25.87,9.24,50.61,6.8,74.65-5.97,4-2.12,8.16-3.94,13.92-6.7l.0199-.0101h0Z"/>
        <path d="M913.65,547.47c-3.48-3.18-6.72-6.15-10.41-9.53-7.48-2.43-15.67-1.71-23.86-1.6-7.15,.1-14.4,.3-21.4301-.75-13.63-2.03-21.29-11.32-25.85-23.58-1.41-3.79,.17-6.94,2.72-9.68,5.6,.46,7.55,5.24,10.8199,8.18,6.75,6.04,14.08,10.11,23.54,9.42,4.59-.34,9.23-.09,13.84,.03,16.34,.41,26.61,9.1,32.1899,23.95,.23,.62-.72,1.69-1.58,3.56h.0203Z"/>
      </g>
    </g>
  </g>
</svg>